…
#>  4 Bishr a…     5 confirmed m        70 2023-01-05 2023-01-05     2023-01-08    
#>  5 Francis…     6 probable  m        28 2023-01-02 2023-01-02     2023-01-06    
#>  6 Jack Mi…     8 suspected m        61 2023-01-04 2023-01-04     NA            
#>  7 Robert …    11 confirmed m        86 2023-01-04 2023-01-04     NA            
#>  8 Olivia …    12 probable  f        71 2023-01-06 2023-01-06     2023-01-08    
#>  9 Hope Ho…    13 probable  f        51 2023-01-07 2023-01-07     NA            
#> 10 Preston…    19 probable  m        50 2023-01-09 2023-01-09     NA            
#> 11 Reece M…    21 probable  m        20 2023-01-11 2023-01-11     NA            
#> 12 Wyona F…    22 confirmed f        24 2023-01-11 2023-01-11     NA            
#> # ℹ 5 more variables: outcome <chr>, date_outcome <date>,
#> #   date_first_contact <date>, date_last_contact <date>, ct_value <dbl>
#> 
#>   // contacts
#> 
#> # A tibble: 21 × 8
#>    from   to      age sex   date_first_contact date_last_contact was_case status
#>    <chr>  <chr> <int> <chr> <date>             <date>            <lgl>    <chr> 
#>  1 Jenni… Tyle…    29 f     2022-12-30         2023-01-08        TRUE     case  
#>  2 Jenni… Sean…    78 m     2022-12-31         2023-01-05        TRUE     case  
#>  3 Tyler… Mune…    22 m     2022-12-30         2023-01-03        FALSE    under…
#>  4 Tyler… Bish…    70 m     2022-12-31         2023-01-04        TRUE     case  
#>  5 Sean … Fran…    28 m     2022-12-30         2023-01-03        TRUE     case  
#>  6 Sean … Andi…    37 m     2022-12-28         2023-01-02        FALSE    lost_…
#>  7 Sean … Jack…    61 m     2022-12-29         2023-01-06        TRUE     case  
#>  8 Bishr… Aver…    46 m     2023-01-01         2023-01-06        FALSE    lost_…
#>  9 Franc… Anth…    67 m     2022-12-30         2023-01-05        FALSE    under…
#> 10 Jack … Robe…    86 m     2023-01-02         2023-01-07        TRUE     case  
#> # ℹ 11 more rows
```
…
