Visualising simulated data • simulist
…
#>  4 5     Cass Milburn confirmed m        78 2023-01-05 NA             NA        
#>  5 6     Hope Cobb    probable  f        22 2023-01-02 NA             NA        
#>  6 8     Wyona Lenah… probable  f        28 2023-01-04 NA             NA        
#>  7 11    Bishr al-Ja… confirmed m        46 2023-01-04 2023-01-16     NA        
#>  8 12    Viviana Mar… probable  f        67 2023-01-06 NA             NA        
#>  9 13    Mudrik al-Y… probable  m        86 2023-01-07 2023-01-08     NA        
#> 10 19    Alexandra A… confirmed f        56 2023-01-09 NA             NA        
#> 11 21    Avery Johns… probable  m        50 2023-01-11 NA             NA        
#> 12 22    Michiyo Hong suspected f         7 2023-01-11 2023-01-11     NA        
#> # ℹ 3 more variables: date_first_contact <date>, date_last_contact <date>,
#> #   ct_value <dbl>
#> 
#>   // contacts
#> 
#> # A tibble: 21 × 8
#>    from   to      age sex   date_first_contact date_last_contact was_case status
#>    <chr>  <chr> <int> <chr> <date>             <date>            <chr>    <chr> 
#>  1 Isaia… Mich…    43 m     2022-12-30         2023-01-05        Y        case  
#>  2 Isaia… Lore…     1 m     2022-12-30         2023-01-02        Y        case  
#>  3 Micha… Alys…    29 f     2022-12-27         2023-01-03        N        under…
#>  4 Micha… Cass…    78 m     2022-12-29         2023-01-02        Y        case  
#>  5 Loren… Hope…    22 f     2023-01-02         2023-01-04        Y        case  
#>  6 Loren… Dona…    70 m     2022-12-31         2023-01-03        N        under…
#>  7 Loren… Wyon…    28 f     2023-01-04         2023-01-05        Y        case  
#>  8 Cass … Jasr…    37 f     2023-01-10         2023-01-10        N        unkno…
#>  9 Hope … Cour…    61 f     2023-01-02         2023-01-06        N        lost_…
#> 10 Wyona… Bish…    46 m     2023-01-07         2023-01-08        Y        case  
#> # ℹ 11 more rows
…
