Visualising simulated data • simulist
…
#> 
#> /// Epidemiological Contacts //
#> 
#>   // class: epicontacts
#>   // 42 cases in linelist; 168 contacts;  directed 
#> 
#>   // linelist
#> Warning: `tbl_df()` was deprecated in dplyr 1.0.0.
#> ℹ Please use `tibble::as_tibble()` instead.
#> ℹ The deprecated feature was likely used in the epicontacts package.
#>   Please report the issue at <https://github.com/reconhub/epicontacts/issues>.
#> This warning is displayed once every 8 hours.
#> Call `lifecycle::last_lifecycle_warnings()` to see where this warning was
#> generated.
#> # A tibble: 42 × 10
#>    id    id.1        case_type gender   age date_onset date_admission date_death
#>    <chr> <chr>       <chr>     <chr>  <int> <date>     <date>         <date>    
#>  1 1     Jessica Ga… confirmed f         28 2023-01-01 NA             NA        
#>  2 2     Aaron Mila… confirmed m         78 2023-01-01 NA             NA        
#>  3 3     Jessica Ba… confirmed f         31 2023-01-02 NA             NA        
#>  4 4     Krizma Wil… probable  f         12 2023-01-02 2023-01-06     NA        
#>  5 5     Joshua Ham… probable  m         80 2023-01-02 NA             NA        
#>  6 6     Chelsa Bell suspected f         44 2023-01-02 NA             NA        
#>  7 7     Abigail Ho… suspected f         74 2023-01-03 NA             2023-01-14
#>  8 8     Tyler Mcgo… confirmed m         26 2023-01-02 NA             NA        
#>  9 9     James Kim   confirmed m         33 2023-01-02 NA             NA        
#> 10 10    Noah Bobo   probable  m          4 2023-01-02 2023-01-03     NA        
#> # ℹ 32 more rows
#> # ℹ 2 more variables: date_first_contact <date>, date_last_contact <date>
#> 
#>   // contacts
#> 
#> # A tibble: 168 × 8
#>    from   to    cnt_age cnt_gender date_first_contact date_last_contact was_case
#>    <chr>  <chr>   <int> <chr>      <date>             <date>            <chr>   
#>  1 Jessi… Aaro…      78 m          2023-01-04         2023-01-07        Y       
#>  2 Jessi… Kayl…      77 f          2023-01-01         2023-01-04        N       
#>  3 Jessi… Shel…      62 f          2022-12-28         2023-01-04        N       
#>  4 Jessi… Rich…      42 m          2022-12-31         2023-01-03        N       
#>  5 Jessi… Dall…      70 m          2022-12-30         2023-01-02        N       
#>  6 Jessi… Kata…      74 f          2022-12-30         2023-01-03        N       
#>  7 Aaron… Jess…      31 f          2022-12-30         2023-01-02        Y       
#>  8 Aaron… Kriz…      12 f          2023-01-02         2023-01-05        Y       
#>  9 Aaron… Josh…      80 m          2023-01-06         2023-01-07        Y       
#> 10 Aaron… Marq…      19 m          2023-01-05         2023-01-06        N       
#> # ℹ 158 more rows
#> # ℹ 1 more variable: status <chr>
…
